{
  "group-list": [
    "default"
  ],
  "collision-matrix": [
    [
      true
    ]
  ],
  "excluded-modules": [
    "3D Physics/Builtin"
  ],
  "start-scene": "2e33e2a3-6a5f-48ad-afbe-6b1213907f18",
  "preview-port": 7456,
  "design-resolution-width": 960,
  "design-resolution-height": 640,
  "fit-width": false,
  "fit-height": true,
  "use-project-simulator-setting": false,
  "simulator-orientation": false,
  "use-customize-simulator": true,
  "simulator-resolution": {
    "height": 640,
    "width": 960
  },
  "clear-simulator-cache": true,
  "facebook": {
    "appID": "",
    "audience": {
      "enable": false
    },
    "enable": false,
    "live": {
      "enable": false
    }
  }
}
